{
  "page": 2,
  "per_page": 6,
  "total": 12,
  "total_pages": 2,
  "data": [
    {
      "id": 1,
      "date": "Jul 10, 12:42 PM",
      "first_name": "Michael",
      "last_name": "Lawson",
      "chat": "Hello, How are you?",
      "avatar": "https://s3.amazonaws.com/uifaces/faces/twitter/follettkyle/128.jpg"
    },
    {
      "id": 2,
      "date": "Jul 1, 12:45 AM",
      "first_name": "Lindsay",
      "last_name": "Ferguson",
      "chat": "Hi, How are you?",
      "avatar": "https://s3.amazonaws.com/uifaces/faces/twitter/araa3185/128.jpg"
    },
    {
      "id": 3,
      "date": "Jul 1, 12:45 AM",
      "first_name": "Lindsay",
      "last_name": "Ferguson",
      "chat": "Hi, How are you?",
      "avatar": "https://s3.amazonaws.com/uifaces/faces/twitter/vivekprvr/128.jpg"
    },
    {
      "id": 4,
      "date": "Jul 1, 12:45 AM",
      "first_name": "Lindsay",
      "last_name": "Ferguson",
      "chat": "Hi, How are you?",
      "avatar": "https://s3.amazonaws.com/uifaces/faces/twitter/russoedu/128.jpg"
    },
    {
      "id": 5,
      "date": "Jul 1, 12:45 AM",
      "first_name": "Lindsay",
      "last_name": "Ferguson",
      "chat": "Hi, How are you?",
      "avatar": "https://s3.amazonaws.com/uifaces/faces/twitter/mrmoiree/128.jpg"
    },
    {
      "id": 6,
      "date": "Jul 1, 12:45 AM",
      "first_name": "Lindsay",
      "last_name": "Ferguson",
      "chat": "Hi, How are you?",
      "avatar": "https://s3.amazonaws.com/uifaces/faces/twitter/hebertialmeida/128.jpg"
    }, {
      "id": 7,
      "date": "Jul 10, 12:42 PM",
      "first_name": "Michael",
      "last_name": "Lawson",
      "chat": "Hello, How are you?",
      "avatar": "https://s3.amazonaws.com/uifaces/faces/twitter/follettkyle/128.jpg"
    },
    {
      "id": 8,
      "date": "Jul 1, 12:45 AM",
      "first_name": "Lindsay",
      "last_name": "Ferguson",
      "chat": "Hi, How are you?",
      "avatar": "https://s3.amazonaws.com/uifaces/faces/twitter/araa3185/128.jpg"
    },
    {
      "id": 9,
      "date": "Jul 1, 12:45 AM",
      "first_name": "Lindsay",
      "last_name": "Ferguson",
      "chat": "Hi, How are you?",
      "avatar": "https://s3.amazonaws.com/uifaces/faces/twitter/vivekprvr/128.jpg"
    }
  ]
}